Starting process: 

Configuration data saved


SCUBA, Version Diamond (64-bit) 3.8.0.64.0
Thu Jun 30 10:30:07 2016

Copyright (c) 1991-1994 by NeoCAD Inc. All rights reserved.
Copyright (c) 1995 AT&T Corp.   All rights reserved.
Copyright (c) 1995-2001 Lucent Technologies Inc.  All rights reserved.
Copyright (c) 2001 Agere Systems   All rights reserved.
Copyright (c) 2002-2016 Lattice Semiconductor Corporation,  All rights reserved.

BEGIN SCUBA Module Synthesis

    Issued command   : C:\lscc\diamond\3.8_x64\ispfpga\bin\nt64\scuba.exe -w -n cross_domain_fifo -lang verilog -synth lse -bus_exp 7 -bb -arch sn5w00 -type ebfifo -depth 256 -width 32 -rwidth 32 -reset_rel SYNC -pe 10 -pe2 12 -pf 21 -pf2 4 
    Circuit name     : cross_domain_fifo
    Module type      : ebfifo
    Module Version   : 5.8
    Ports            : 
	Inputs       : Data[31:0], WrClock, RdClock, WrEn, RdEn, Reset, RPReset
	Outputs      : Q[31:0], Empty, Full, AlmostEmpty, AlmostFull
    I/O buffer       : not inserted
    EDIF output      : cross_domain_fifo.edn
    Verilog output   : cross_domain_fifo.v
    Verilog template : cross_domain_fifo_tmpl.v
    Verilog testbench: tb_cross_domain_fifo_tmpl.v
    Verilog purpose  : for synthesis and simulation
    Bus notation     : big endian
    Report output    : cross_domain_fifo.srp
    Estimated Resource Usage:
            LUT : 207
            EBR : 2
            Reg : 130

END   SCUBA Module Synthesis

File: cross_domain_fifo.lpc created.


End process: completed successfully.


Total Warnings:  0

Total Errors:  0


